<svg xmlns="http://www.w3.org/2000/svg" width="16.017" height="16.857" viewBox="0 0 16.017 16.857">
  <path id="Path_23" data-name="Path 23" d="M408.136,1472.457a1.769,1.769,0,0,1-.351-1.079v-12.254a2.954,2.954,0,0,1,2.948-2.948h10.12a2.954,2.954,0,0,1,2.949,2.948v12.254a1.769,1.769,0,0,1-.351,1.079,1.49,1.49,0,0,1-.464.4,1.367,1.367,0,0,1-1.513-.121l-1.9-1.46-3.778-2.9-3.778,2.9-1.9,1.46a1.367,1.367,0,0,1-1.513.121,1.49,1.49,0,0,1-.464-.4Zm.713-1.079c0,.472.347.726.62.517l1.9-1.46,4.262-3.27a.281.281,0,0,1,.16-.038h0a.28.28,0,0,1,.159.038l4.262,3.27,1.9,1.46c.272.209.62-.044.62-.517v-12.254a1.89,1.89,0,0,0-1.885-1.885h-10.12a1.89,1.89,0,0,0-1.885,1.885v12.254Z" transform="translate(-407.785 -1456.175)" fill="#2a4455" fill-rule="evenodd"/>
</svg>
