<svg width="42" height="42" viewBox="0 0 42 42" fill="none" xmlns="http://www.w3.org/2000/svg">
<path d="M29.75 27.125H21V29.75H29.75V27.125ZM33.25 33.25H8.75L33.25 8.75V33.25ZM9.625 13.125H13.125V9.625H15.75V13.125H19.25V15.75H15.75V19.25H13.125V15.75H9.625V13.125ZM33.25 5.25H8.75C6.8075 5.25 5.25 6.8075 5.25 8.75V33.25C5.25 34.1783 5.61875 35.0685 6.27513 35.7249C6.9315 36.3813 7.82174 36.75 8.75 36.75H33.25C34.1783 36.75 35.0685 36.3813 35.7249 35.7249C36.3813 35.0685 36.75 34.1783 36.75 33.25V8.75C36.75 7.82174 36.3813 6.9315 35.7249 6.27513C35.0685 5.61875 34.1783 5.25 33.25 5.25Z" fill="#2A4455"/>
</svg>
